{
  "success": true,
  "statusCode": 200,
  "data": {
    "items": {
      "items": [
        {
          "id": "6ceebd49-339e-4cd4-acdc-3f6e1c835c06",
          "url": "https://www.upwork.com/jobs/Freelance-Frontend-Software-Engineer-React-Timer-Component_%7E01324b4e1239d722e7?source=rss",
          "title": "Freelance Frontend Software Engineer - React Timer Component - Upwork",
          "published": "2023-11-17T22:27:55.000Z",
          "keywords": [
            "Frontend development",
            "JavaScript",
            "Typescript",
            "React.js",
            "Tailwind CSS",
            "Bootstrap",
            "CSS frameworks",
            "Redux",
            "Node.js"
          ],
          "score": 28,
          "matchedCases": 10,
          "matchedBlogs": 11,
          "accountId": 1,
          "presetId": "2126eb63-45d7-4af2-a65b-073c3b362039",
          "review": {
            "type": "Like",
            "comment": "nice"
          }
        },
        {
          "id": "dc5cad7f-df0c-4df9-99db-74f5053d600f",
          "url": "https://www.upwork.com/jobs/Freelance-Frontend-Software-Engineer-React-Timer-Component_%7E01324b4e1239d722e7?source=rss",
          "title": "Freelance Frontend Software Engineer - React Timer Component - Upwork",
          "published": "2023-11-17T22:27:55.000Z",
          "keywords": [
            "Frontend development",
            "JavaScript",
            "Typescript",
            "React.js",
            "Tailwind CSS",
            "Bootstrap",
            "CSS frameworks",
            "Redux",
            "Node.js"
          ],
          "score": 129,
          "matchedCases": 10,
          "matchedBlogs": 12,
          "accountId": 1,
          "presetId": "cb167b33-d962-4b06-a430-3c37d0ebe6f1",
          "review": null
        },
        {
          "id": "dc5cad7f-df0c-4df9-99db-74f5053d600f",
          "url": "https://www.upwork.com/jobs/Freelance-Frontend-Software-Engineer-React-Timer-Component_%7E01324b4e1239d722e7?source=rss",
          "title": "Freelance Frontend Software Engineer - React Timer Component - Upwork",
          "published": "2023-11-17T22:27:55.000Z",
          "keywords": [
            "Frontend development",
            "JavaScript",
            "Typescript",
            "React.js",
            "Tailwind CSS",
            "Bootstrap",
            "CSS frameworks",
            "Redux",
            "Node.js"
          ],
          "score": 229,
          "matchedCases": 10,
          "matchedBlogs": 12,
          "accountId": 1,
          "presetId": "cb167b33-d962-4b06-a430-3c37d0ebe6f1",
          "review": {
            "type": "Dislike",
            "comment": "not nice"
          }
        }
      ],
      "totalCount": 3957,
      "totalPages": 198,
      "pageNumber": 1,
      "pageSize": 20
    },
    "keywordsOptions": [
      {
        "label": "Aave",
        "value": "Aave"
      },
      {
        "label": "ability to mitigate them",
        "value": "ability to mitigate them"
      }
    ],
    "scoreOptions": [
      {
        "label": "0 - 19",
        "value": "0 - 19"
      },
      {
        "label": "20 - 39",
        "value": "20 - 39"
      },
      {
        "label": "40 - 59",
        "value": "40 - 59"
      },
      {
        "label": "60 - 79",
        "value": "60 - 79"
      },
      {
        "label": "80 - 100",
        "value": "80 - 100"
      }
    ]
  },
  "error": null
}
